<?xml version="1.0" encoding="UTF-8"?>
<session version="1.0">
<refactoring comment="Delete resource &apos;AllegiantAirAutomation&apos;" deleteContents="false" description="Delete resource &apos;AllegiantAirAutomation&apos;" element1="/AllegiantAirAutomation" flags="7" id="org.eclipse.ltk.core.refactoring.delete.resources" resources="1" stamp="1386051098677"/>
</session>