INDEX VERSION 1.126+G:\AllAir\AllegiantAir\.metadata\.plugins\org.eclipse.jdt.core
255943037.index
3133528496.index
2745703882.index
3757238331.index
1499014484.index
3512016222.index
3065916431.index
342389593.index
1350148747.index
4155206848.index
4231467913.index
187872503.index
1732472880.index
4288543856.index
750620965.index
576765527.index
1697886153.index
1218353768.index
1929570930.index
211024936.index
2033872594.index
4108727661.index
2399626828.index
154659410.index
3974580528.index
1299022128.index
3133397990.index
2313024513.index
112819109.index
686562455.index
1503501306.index
293293231.index
163172794.index
4228300101.index
305854171.index
83695653.index
81159540.index
2950882465.index
1861138694.index
3278929044.index
515918887.index
2328092334.index
1995173708.index
3948756718.index
1326577998.index
3796275701.index
2753444023.index
2943830225.index
63481054.index
3547550913.index
4153463515.index
2213592984.index
2389900781.index
1498219845.index
4041092966.index
251179768.index
30765161.index
1533063980.index
1115467115.index
1908624586.index
3200632081.index
439168421.index
3291596775.index
2898229304.index
